Nom;Climat / Météo;Population;PIB moyen par habitant et par an / Taux de chômage;Préfecture / Député / Parti politique;Superficie Globale / Altitude moyenne;Monument / Club de Ligue 1
Auvergne-Rhône-Alpes;Le climat de la région est Océanique Chaud / L'ensoleillement est de 2300h par an / Les précipitations annuelles vont de 700 mm dans l'Ouest à 1100 mm dans l'Est;Il y a une population de 8 millions d’habitants;Le PIB régional etait de 29 797€ par habitant en 2015 / Le taux de chômage cependant, est de 7%;La préfecture de cette région se trouve être Lyon / Le préfet se nomme Pascal Mailhos / En 2015 la région votait en moyenne pour la Droite;Cette région possède un territoire de 69 711 km² / L’altitude moyenne de la région est de;Certains des monuments ou lieux touristiques sont les Volcans d'Auvergne ou encore la Forteresse de Polignac / Les clubs de foot de Ligue 1 dans cette région sont le Clermont Foot, l'AS Saint-Étienne et l'OL
Bourgogne-Franche-Comté;Le climat de la région est Semi-Continental Humide / L'ensoleillement est de 1900h par an / Les précipitations annuelles vont de 700 mm dans l'Ouest à 1600 mm dans l'Est;Il y a une population de 2,7 millions d’habitants;Le PIB régional etait de 26 035€ par habitant  en 2015 / Le taux de chômage cependant, est de 6,8 %;La préfecture de cette région se trouve être Dijon / Le préfet se nomme Fabien Sudry / En 2015 la région votait en moyenne pour la Gauche;Cette région possède un territoire de 47 784 km² / L’altitude moyenne de la région est de 426 m;Certains des monuments ou lieux touristiques sont l’Abbaye de Fontenay ou encore les Vignobles Bordelais / Les clubs de foot de Ligue 1 dans cette région n'existe pas
Bretagne;Le climat de la région est Océanique Tempéré / L'ensoleillement est de 1700h par an / Les précipitations annuelles vont de 1100 mm dans l'Ouest à 600 mm dans l'Est;Il y a une population de 3,4 millions d’habitants;Le PIB régional etait de 27 838€ par habitant en 2015 / Le taux de chômage cependant, est de 6,5 %;La préfecture de cette région se trouve être Rennes / Le préfet se nomme Emmanuel Berthier / En 2015 la région votait en moyenne pour la Gauche;Cette région possède un territoire de 27 208 km² / L’altitude moyenne de la région est de 400m;Certains des monuments ou lieux touristiques sont les Dolmens de Carnac ou encore Dinan / Les clubs de foot de Ligue 1 dans cette région sont le Stade Brestois, le FC Lorient et le Stade Rennais
Centre-Val de Loire;Le climat de la région est Océanique Tempéré voir Méridional / L'ensoleillement est de 1900h par an / Les précipitations annuelles vont de 600 mm dans l'Ouest à 700 mm dans l'Est;Il y a une population de 2,5 millions d’habitants;Le PIB régional etait de 27 274€ par habitant en 2015 / Le taux de chômage cependant, est de 7,3 %;La préfecture de cette région se trouve être Orléans / Le préfet se nomme Régine Engström / En 2015 la région votait en moyenne pour la Gauche;Cette région possède un territoire de 39 151 km² / L’altitude moyenne de la région est de 430m;Certains des monuments ou lieux touristiques sont la Cathédrale Saint-Gatien ou encore la Place Plumereau / Les clubs de foot de Ligue 1 dans cette région n'existe pas
Corse;Le climat de la région est Méditerranéen / L'ensoleillement est de 2800h par an / Les précipitations annuelles vont de 500 mm dans l'Ouest à 1200 mm dans l'Est;Il y a une population de 340 milles habitants;Le PIB régional etait de 26 954€ par habitant en 2015 / Le taux de chômage cependant, est de 7,2 %;La préfecture de cette région se trouve être Ajaccio / Le préfet se nomme Amaury De Saint Quentin / En 2015 la région votait en moyenne pour les Régionalistes;Cette région possède un territoire de 8 680 km² / L’altitude moyenne de la région est de 735m;Certains des monuments ou lieux touristiques sont la Calanque de piana ou encore la Citadelle de Bastia / Les clubs de foot de Ligue 1 dans cette région n'existe pas
Grand Est;Le climat de la région est Continental / L'ensoleillement est de 1700h par an / Les précipitations annuelles vont de 1100 mm dans l'Ouest à 500 mm dans l'Est;Il y a une population de 5,5 millions d’habitants;Le PIB régional etait de 27 636€ par habitant en 2015 / Le taux de chômage cependant, est de 7,9 %;La préfecture de cette région se trouve être Strasbourg / Le préfet se nomme Josiane Chevalier / En 2015 la région votait en moyenne pour la Droite;Cette région possède un territoire de 57 433 km² / L’altitude moyenne de la région est de 520m;Certains des monuments ou lieux touristiques sont la Ligne Maginot ou encore la Cathédrale de Reims / Les clubs de foot de Ligue 1 dans cette région sont le Stade de Reims, FC Metz, RC Strasbourg et ES Troyes AC
Hauts-de-France;Le climat de la région est Septentrional / L'ensoleillement est de 1700 par an / Les précipitations annuelles vont de 1000 mm dans l'Ouest à 800 mm dans l'Est;Il y a une population de 5,9 millions d’habitants;Le PIB régional etait de 25 807€ par habitant en 2015 / Le taux de chômage cependant, est de 9,7 %;La préfecture de cette région se trouve être Lille / Le préfet se nomme Georges-François Leclerc / En 2015 la région votait en moyenne pour la Droite;Cette région possède un territoire de 31 814 km² / L’altitude moyenne de la région est de 415m;Certains des monuments ou lieux touristiques sont le Parc Astérix ou encore le Centre national de la mer / Les clubs de foot de Ligue 1 dans cette région sont le LOSC et le RC Lens
Île-de-France;Le climat de la région est Océanique Altéré  / L'ensoleillement est de 1800h par an / Les précipitations annuelles vont de 600 mm dans l'Ouest à 700 mm dans l'Est;Il y a une population de 12 millions d’habitants;Le PIB régional etait de 55 227€ par habitant en 2015 / Le taux de chômage cependant, est de 7,6 %;La préfecture de cette région se trouve être Paris / Le préfet se nomme Marc Guillaume / En 2015 la région votait en moyenne pour la Droite;Cette région possède un territoire de 12 011 km² / L’altitude moyenne de la région est de 410m;Certains des monuments ou lieux touristiques sont le Louvre ou encore la Tour Eiffel / Le club de foot de Ligue 1 dans cette région est le PSG
Normandie;Le climat de la région est Tempéré / L'ensoleillement est de 1600h par an / Les précipitations annuelles vont de 1200 mm dans l'Ouest à 700 mm dans l'Est;Il y a une population de 3,3 millions d’habitants;Le PIB régional etait de 27 331,50€ par habitant en 2015 / Le taux de chômage cependant, est de 7,8 %;La préfecture de cette région se trouve être Rouen / Le préfet se nomme Pierre-André Durand / En 2015 la région votait en moyenne pour la Droite;Cette région possède un territoire de 29 907 km² / L’altitude moyenne de la région est de 400m;Certains des monuments ou lieux touristiques sont le Mont Saint-Michel ou encore la Cathédrale Notre-Dame de Rouen / Les clubs de foot de Ligue 1 dans cette région n'existe pas
Nouvelle-Aquitaine;Le climat de la région est Tempéré / L'ensoleillement est de 2100h par an / Les précipitations annuelles vont de 1600 mm dans l'Ouest à 1000 mm dans l'Est;Il y a une population de 6 millions d’habitants;Le PIB régional etait de 26 808€ par habitant en 2015 / Le taux de chômage cependant, est de 7,3 %;La préfecture de cette région se trouve être Bordeaux / Le préfet se nomme Fabienne Buccio / En 2015 la région votait en moyenne pour la Gauche;Cette région possède un territoire de 84 036 km² / L’altitude moyenne de la région est de 525m;Certains des monuments ou lieux touristiques sont la Place de la bourse ou encore le Rocher de la vierge / Le club de foot de Ligue 1 dans cette région est le Girondins Bordeaux
Occitanie;Le climat de la région est Subtropical / L'ensoleillement est de 2100h par an / Les précipitations annuelles vont de 700 mm dans l'Ouest à 1100 mm dans l'Est;Il y a une population de 6 millions d’habitants;Le PIB régional etait de 27 339,5€ par habitant en 2015 / Le taux de chômage cependant, est de 9,5 %;La préfecture de cette région se trouve être Toulouse / Le préfet se nomme Étienne Guyot / En 2015 la région votait en moyenne pour la Gauche;Cette région possède un territoire de 72 724 km² / L’altitude moyenne de la région est de 460m;Certains des monuments ou lieux touristiques sont la Cité de l'espace ou encore Hôtel Pams / Le club de foot de Ligue 1 dans cette région est le Montpellier HSC
Pays de la Loire;Le climat de la région est d'influence Océanique / L'ensoleillement est de 1900h par an / Les précipitations annuelles vont de 900 mm dans l'Ouest à 600 mm dans l'Est;Il y a une population de 3,8 millions d’habitants;Le PIB régional etait de 29 424€ par habitant en 2015 / Le taux de chômage cependant, est de 6,7 %;La préfecture de cette région se trouve être Nantes / Le préfet se nomme Didier Martin / En 2015 la région votait en moyenne pour la Droite;Cette région possède un territoire de 32 082 km² / L’altitude moyenne de la région est de 440m;Certains des monuments ou lieux touristiques sont le Château d'Angers ou encore le Château des Ducs de Bretagne / Les clubs de foot de Ligue 1 dans cette région sont le FC Nantes et le SCO d'Angers
Provence-Alpes-Côte d'Azur;Le climat de la région est Méditerranéen / L'ensoleillement est de 2700h par an / Les précipitations annuelles vont de 500 mm dans l'Ouest à 1100 mm dans l'Est;Il y a une population de 5,1 millions d’habitants;Le PIB régional etait de 30 864€ par habitant en 2015 / Le taux de chômage cependant, est de 9,1 %;La préfecture de cette région se trouve être Marseille / Le préfet se nomme Christophe Mirmand / En 2015 la région votait en moyenne pour la Droite;Cette région possède un territoire de 31 400 km² / L’altitude moyenne de la région est de 650m;Certains des monuments ou lieux touristiques sont la Basilique Notre Dame de la Garde ou encore le Théâtre Antique d'Orange / Les clubs de foot de Ligue 1 dans cette région sont l'OM et l'OGC Nice
Guadeloupe;Le climat de la région est Tropical / L'ensoleillement est de 2740h par an / Les précipitations annuelles vont de 3500 mm dans l'Ouest à 1000 mm dans l'Est;Il y a une population de 380 milles habitants;Le PIB régional etait de 21 201€ par habitant en 2015 / Le taux de chômage cependant, est de 23 %;La préfecture de cette région se trouve être Basse-Terre / Le préfet se nomme Alexandre Rochatte  / En 2015 la région votait en moyenne pour la Gauche;Cette région possède un territoire de 1 628 km² / L’altitude moyenne de la région est de 750m;Certains des monuments ou lieux touristiques sont la Pointe des Chapeaux ou encore Notre Dame des Larmes / Les clubs de foot de Ligue 1 dans cette région n'existe pas
Martinique;Le climat de la région est Tropical / L'ensoleillement est de 2600h par an / Les précipitations annuelles vont de 3500 mm dans l'Ouest à 1500 mm dans l'Est;Il y a une population de 365 milles habitants;Le PIB régional etait de 23 900€ par habitant en 2015 / Le taux de chômage cependant, est de 18 %;La préfecture de cette région se trouve être Fort-de-France / Le préfet se nomme Stanislas Cazelles / En 2015 la région votait en moyenne pour la Gauche;Cette région possède un territoire de 1 128 km² / L’altitude moyenne de la région est de 640m;Certains des monuments ou lieux touristiques sont le Rocher du Diamant ou encore La Savane des Esclaves / Les clubs de foot de Ligue 1 dans cette région n'existe pas
Guyane;Le climat de la région est Équatorial Humide / L'ensoleillement est de 2200h par an / Les précipitations annuelles vont de 2400 mm dans l'Ouest à 3600 mm dans l'Est;Il y a une population de 280 milles habitants;Le PIB régional etait de 15 853€ par habitant en 2015 / Le taux de chômage cependant, est de 19 %;La préfecture de cette région se trouve être Cayenne / Le préfet se nomme Thierry Queffelec / En 2015 la région votait en moyenne pour la Gauche;Cette région possède un territoire de 83 846 km² / L’altitude moyenne de la région est de 710m;Certains des monuments ou lieux touristiques sont le Centre spatial de Kourou ou encore le Musée Alexandre-Franchonie / Les clubs de foot de Ligue 1 dans cette région n'existe pas
La Réunion;Le climat de la région est Tropical / L'ensoleillement est de 2500h par an / Les précipitations annuelles vont de 500 mm dans l'Ouest à 3000 mm dans l'Est;Il y a une population de 860 milles habitants;Le PIB régional etait de 21 090€ par habitant en 2015 / Le taux de chômage cependant, est de 24 %;La préfecture de cette région se trouve être Saint-Denis / Le préfet se nomme Jacques Billant / En 2015 la région votait en moyenne pour la Droite;Cette région possède un territoire de 2 512 km² / L’altitude moyenne de la région est de 625m;Certains des monuments ou lieux touristiques sont le Piton de la fournaise ou encore Temple de l'Union / Les clubs de foot de Ligue 1 dans cette région n'existe pas
Mayotte;Le climat de la région est Tropical / L'ensoleillement est de 1600h par an / Les précipitations annuelles vont de 1100 mm dans le Sud à 1600 mm dans le Nord;Il y a une population de 280 milles habitants;Le PIB régional etait de 8 661€ par habitant en 2015 / Le taux de chômage cependant, est de 35 %;La préfecture de cette région se trouve être Mamoudzou / Le préfet se nomme Thierry Suquet / En 2015 la région votait en moyenne pour la Droite;Cette région possède un territoire de 375 km² / L’altitude moyenne de la région est de 625m;Certains des monuments ou lieux touristiques sont la Mosquée d'Antana Bé ou encore le Rocher de Dzaoudzi / Les clubs de foot de Ligue 1 dans cette région n'existe pas
